*HEADING
Simple square mesh for testing xfem.
*NODE
    1,  -2.0,   -2.5
    2,  -1.0,   -2.5
    3,  0.0,    -2.5
    4,  1.0,    -2.5
    5,  2.0,    -2.5
    6,  -2.0,   -1.5
    7,  -1.0,   -1.5
    8,  0.0,    -1.5
    9,  1.0,    -1.5
    10, 2.0,    -1.5
    11, -2.0,   -0.5
    12, -1.0,   -0.5
    13, 0.0,    -0.5
    14, 1.0,    -0.5
    15, 2.0,    -0.5
    16, -2.0,   0.5
    17, -1.0,   0.5
    18, 0.0,    0.5
    19, 1.0,    0.5
    20, 2.0,    0.5
    21, -2.0,   1.5
    22, -1.0,   1.5
    23, 0.0,    1.5
    24, 1.0,    1.5
    25, 2.0,    1.5
    26, -2.0,   2.5
    27, -1.0,   2.5
    28, 0.0,    2.5
    29, 1.0,    2.5
    30, 2.0,    2.5
*ELEMENT, TYPE=CPE4R, ELSET=EB1
    1,  1,  2,  7,  6
    2,  2,  3,  8,  7
    3,  3,  4,  9,  8
    4,  4,  5,  10, 9
    5,  6,  7,  12, 11
    6,  7,  8,  13, 12
    7,  8,  9,  14, 13
    8,  9,  10, 15, 14
    9,  11, 12, 17, 16
    10, 12, 13, 18, 17
    11, 13, 14, 19, 18
    12, 14, 15, 20, 19
    13, 16, 17, 22, 21
    14, 17, 18, 23, 22
    15, 18, 19, 24, 23
    16, 19, 20, 25, 24
    17, 21, 22, 27, 26
    18, 22, 23, 28, 27
    19, 23, 24, 29, 28
    20, 24, 25, 30, 29
